%YAML 1.1
%TAG !u! tag:unity3d.com,2011:
--- !u!1045 &1
EditorBuildSettings:
  m_ObjectHideFlags: 0
  serializedVersion: 2
  m_Scenes:
  - enabled: 1
    path: Assets/Scenes/SampleScene.unity
    guid: 2cda990e2423bbf4892e6590ba056729
  - enabled: 1
    path: Assets/Scenes/Level2.unity
    guid: aa6733136835f1c4ebb1e8f4a67bacd4
  - enabled: 1
    path: Assets/Scenes/Game_over.unity
    guid: df9ff52420389e5478172144e0a3a46c
  m_configObjects: {}
